G-calculations_project/DefaultBoiFiles/defaultboi14.csv

#Digilent WaveForms Oscilloscope Acquisition
#Device Name: Discovery2
#Serial Number: SN:210321A35D7A
#Date Time: 2018-11-30 11:22:01.254
#Sample rate: 50000Hz
#Samples: 72304
#Trigger: Source: Channel 1 Type: Edge Condition: Rising Level: 3.65 V Hyst.: Auto HoldOff: 0 s
#Channel 1: Range: 500 mV/div Offset: -4 V

Time (s),Channel 1 (V)
-0.5,3.7759871258258308
-0.49997999999999987,2.056211080257869
-0.49996000000000018,2.0565414887200291
-0.49994000000000005,2.0565414887200339
-0.49991999999999992,2.0568718971821989
-0.49989999999999979,2.056211080257869
-0.4998800000000001,2.056211080257869
-0.49985999999999997,2.0565414887200339
-0.49983999999999984,2.0565414887200291
-0.49982000000000015,2.0562110802578739
-0.49980000000000002,2.056211080257869
-0.49977999999999989,2.0565414887200339
-0.4997600000000002,2.0562110802578739
-0.49974000000000007,2.0558806717957046
-0.49971999999999994,2.0565414887200339
-0.49969999999999981,2.0565414887200242
-0.49968000000000012,2.0558806717957046
-0.49965999999999999,2.0565414887200339
-0.49963999999999986,2.056211080257869
-0.49962000000000018,2.056211080257869
-0.49960000000000004,2.056211080257869
-0.49957999999999991,2.056211080257869
-0.49955999999999978,2.0565414887200339
-0.4995400000000001,2.0565414887200339
-0.49951999999999996,2.056211080257869
-0.49949999999999983,2.0562110802578739
-0.49948000000000015,2.0565414887200291
-0.49946000000000002,2.0565414887200339
-0.49943999999999988,2.056211080257869
-0.4994200000000002,2.056211080257869
-0.49940000000000007,2.0565414887200339
-0.49937999999999994,2.0565414887200339
-0.4993599999999998,2.0558806717957143
-0.49934000000000012,2.0565414887200339
-0.49931999999999999,2.0565414887200339
-0.49929999999999986,2.056211080257869
-0.49928000000000017,2.0565414887200291
-0.49926000000000004,2.0565414887200339
-0.49923999999999991,2.056211080257869
-0.49922000000000022,2.0558806717957094
-0.49920000000000009,2.056211080257869
-0.49917999999999996,2.0565414887200339
-0.49915999999999983,2.0565414887200242
-0.49914000000000014,2.0558806717957046
-0.49912000000000001,2.056211080257869
-0.49909999999999988,2.0565414887200339
-0.49908000000000019,2.0562110802578739
-0.49906000000000006,2.0558806717957046
-0.49903999999999993,2.0558806717957046
-0.4990199999999998,2.0565414887200291
-0.49900000000000011,2.056211080257869
-0.49897999999999998,2.056211080257869
-0.49895999999999985,2.0562110802578739
-0.49894000000000016,2.0565414887200291
-0.49892000000000003,2.056211080257869
-0.4988999999999999,2.056211080257869
-0.49888000000000021,2.0565414887200291
-0.49886000000000008,2.056211080257869
-0.49883999999999995,2.056211080257869
-0.49881999999999982,2.0558806717957046
-0.49880000000000013,2.0558806717957046
-0.49878,2.056211080257869
-0.49875999999999987,2.0558806717957046
-0.49874000000000018,2.0555502633335441
-0.49872000000000005,2.056211080257869
-0.49869999999999992,2.056211080257869
-0.49867999999999979,2.0558806717957046
-0.4986600000000001,2.0558806717957046
-0.49863999999999997,2.056211080257869
-0.49861999999999984,2.0562110802578593
-0.49860000000000015,2.055550263333549
-0.49858000000000002,2.0558806717957046
-0.49855999999999989,2.056211080257869
-0.49854000000000021,2.0558806717957094
-0.49852000000000007,2.0558806717957046
-0.49849999999999994,2.056211080257869
-0.49847999999999981,2.056211080257869
-0.49846000000000013,2.056211080257869
-0.49843999999999999,2.0555502633335392
-0.49841999999999986,2.0558806717957046
-0.49840000000000018,2.0558806717957046
-0.49838000000000005,2.0558806717957046
-0.49835999999999991,2.0555502633335392
-0.49833999999999978,2.056211080257869
-0.4983200000000001,2.056211080257869
-0.49829999999999997,2.0558806717957046
-0.49827999999999983,2.055550263333549
-0.49826000000000015,2.0562110802578593
-0.49824000000000002,2.0558806717957046
-0.49821999999999989,2.0555502633335392
-0.4982000000000002,2.0562110802578593
-0.49818000000000007,2.056211080257869
-0.49815999999999994,2.0558806717957046
-0.49813999999999981,2.0558806717957046
-0.49812000000000012,2.0558806717957046
-0.49809999999999999,2.056211080257869
-0.49807999999999986,2.0558806717957046
-0.49806000000000017,2.0552198548713845
-0.49804000000000004,2.0558806717957046
-0.49801999999999991,2.0558806717957046
-0.49800000000000022,2.0555502633335441
-0.49798000000000009,2.0552198548713747
-0.49795999999999996,2.0558806717957046
-0.49793999999999983,2.0562110802578641
-0.49792000000000014,2.0558806717957046
-0.49790000000000001,2.0558806717957046
-0.49787999999999988,2.0558806717957046
-0.49786000000000019,2.0558806717957046
-0.49784000000000006,2.0555502633335392
-0.49781999999999993,2.0558806717957046
-0.4977999999999998,2.056211080257869
-0.49778000000000011,2.056211080257869
-0.49775999999999998,2.0558806717957046
-0.49773999999999985,2.055550263333549
-0.49772000000000016,2.0562110802578593
-0.49770000000000003,2.0558806717957046
-0.4976799999999999,2.0558806717957046
-0.49766000000000021,2.0558806717957046
-0.49764000000000008,2.0565414887200339
-0.49761999999999995,2.0558806717957046
-0.49759999999999982,2.0558806717957094
-0.49758000000000013,2.056211080257869
-0.49756,2.056211080257869
-0.49753999999999987,2.056211080257869
-0.49752000000000018,2.055550263333549
-0.49750000000000005,2.056211080257869
-0.49747999999999992,2.0558806717957046
-0.49745999999999979,2.0558806717956997
-0.4974400000000001,2.0555502633335392
-0.49741999999999997,2.0558806717957046
-0.49739999999999984,2.0558806717957046
-0.49738000000000016,2.0558806717957046
-0.49736000000000002,2.056211080257869
-0.49733999999999989,2.056211080257869
-0.49732000000000021,2.056211080257869
-0.49730000000000008,2.0558806717957046
-0.49727999999999994,2.056211080257869
-0.49725999999999981,2.0562110802578739
-0.49724000000000013,2.0565414887200339
-0.49722,2.0555502633335392
-0.49719999999999986,2.0555502633335392
-0.49718000000000018,2.0562110802578593
-0.49716000000000005,2.056211080257869
-0.49713999999999992,2.0558806717957046
-0.49711999999999978,2.0558806717957094
-0.4971000000000001,2.056211080257869
-0.49707999999999997,2.056211080257869
-0.49705999999999984,2.0558806717957094
-0.49704000000000015,2.0562110802578641
-0.49702000000000002,2.056211080257869
-0.49699999999999989,2.056211080257869
-0.4969800000000002,2.055550263333549
-0.49696000000000007,2.0558806717957046
-0.49693999999999994,2.056211080257869
-0.49691999999999981,2.0558806717957094
-0.49690000000000012,2.056211080257869
-0.49687999999999999,2.056211080257869
-0.49685999999999986,2.056211080257869
-0.49684000000000017,2.0558806717957094
-0.49682000000000004,2.056211080257869
-0.49679999999999991,2.0558806717957046
-0.49678000000000022,2.0562110802578641
-0.49676000000000009,2.0555502633335392
-0.49673999999999996,2.0558806717957046
-0.49671999999999983,2.056211080257869
-0.49670000000000014,2.056211080257869
-0.49668000000000001,2.0555502633335392
-0.49665999999999988,2.0558806717957046
-0.49664000000000019,2.0558806717957046
-0.49662000000000006,2.056211080257869
-0.49659999999999993,2.0552198548713747
-0.4965799999999998,2.056211080257869
-0.49656000000000011,2.056211080257869
-0.49653999999999998,2.056211080257869
-0.49651999999999985,2.0555502633335441
-0.49650000000000016,2.0558806717956997
-0.49648000000000003,2.0565414887200339
-0.4964599999999999,2.0558806717957046
-0.49644000000000021,2.0555502633335441
-0.49642000000000008,2.056211080257869
-0.49639999999999995,2.056211080257869
-0.49637999999999982,2.0562110802578641
-0.49636000000000013,2.0558806717957046
-0.49634,2.056211080257869
-0.49631999999999987,2.056211080257869
-0.49630000000000019,2.0558806717957094
-0.49628000000000005,2.056211080257869
-0.49625999999999992,2.056211080257869
-0.49623999999999979,2.0562110802578593
-0.49622000000000011,2.0555502633335392
-0.49619999999999997,2.0555502633335392
-0.49617999999999984,2.0565414887200291
-0.49616000000000016,2.0562110802578739
-0.49614000000000003,2.0558806717957046
-0.49611999999999989,2.0558806717957046
-0.49610000000000021,2.0565414887200242
-0.49608000000000008,2.0565414887200339
-0.49605999999999995,2.0555502633335392
-0.49603999999999981,2.0558806717957094
-0.49602000000000013,2.056211080257869
-0.496,2.056211080257869
-0.49597999999999987,2.0558806717957046
-0.49596000000000018,2.0558806717957046
-0.49594000000000005,2.056211080257869
-0.49591999999999992,2.0565414887200339
-0.49589999999999979,2.0562110802578739
-0.4958800000000001,2.0565414887200339
-0.49585999999999997,2.0568718971821989
-0.49583999999999984,2.0558806717957046
-0.49582000000000015,2.0558806717957046
-0.49580000000000002,2.0558806717957046
-0.49577999999999989,2.056211080257869
-0.4957600000000002,2.0558806717957094
-0.49574000000000007,2.0558806717957046
-0.49571999999999994,2.056211080257869
-0.49569999999999981,2.0565414887200242
-0.49568000000000012,2.0558806717957046
-0.49565999999999999,2.056211080257869
-0.49563999999999986,2.0565414887200339
-0.49562000000000017,2.0558806717957143
-0.49560000000000004,2.0558806717957046
-0.49557999999999991,2.056211080257869
-0.49555999999999978,2.0565414887200291
-0.49554000000000009,2.056211080257869
-0.49551999999999996,2.0558806717957046
-0.49549999999999983,2.0562110802578739
-0.49548000000000014,2.0565414887200339
-0.49546000000000001,2.0558806717957046
-0.49543999999999988,2.0558806717957046
-0.49542000000000019,2.0562110802578641
-0.49540000000000006,2.056211080257869
-0.49537999999999993,2.0558806717957046
-0.4953599999999998,2.056211080257869
-0.49534000000000011,2.056211080257869
-0.49531999999999998,2.056211080257869
-0.49529999999999985,2.0558806717957046
-0.49528000000000016,2.0558806717957046
-0.49526000000000003,2.0565414887200339
-0.4952399999999999,2.056211080257869
-0.49522000000000022,2.0558806717957094
-0.49520000000000008,2.056211080257869
-0.49517999999999995,2.0568718971821989
-0.49515999999999982,2.056211080257869
-0.49514000000000014,2.056211080257869
-0.49512,2.0565414887200339
-0.49509999999999987,2.056211080257869
-0.49508000000000019,2.0558806717957094
-0.49506000000000006,2.0555502633335392
-0.49503999999999992,2.056211080257869
-0.49501999999999979,2.0565414887200291
-0.49500000000000011,2.056211080257869
-0.49497999999999998,2.0558806717957046
-0.49495999999999984,2.0565414887200291
-0.49494000000000016,2.0562110802578739
-0.49492000000000003,2.0558806717957046
-0.4948999999999999,2.0558806717957046
-0.49488000000000021,2.0565414887200242
-0.49486000000000008,2.056211080257869
-0.49483999999999995,2.0558806717957046
-0.49481999999999982,2.056211080257869
-0.49480000000000013,2.056211080257869
-0.49478,2.0558806717957046
-0.49475999999999987,2.0555502633335392
-0.49474000000000018,2.0558806717956997
-0.49472000000000005,2.056211080257869
-0.49469999999999992,2.056211080257869
-0.49467999999999979,2.0558806717957094
-0.4946600000000001,2.056211080257869
-0.49463999999999997,2.0565414887200339
-0.49461999999999984,2.0562110802578641
-0.49460000000000015,2.0558806717957094
-0.49458000000000002,2.056211080257869
-0.49455999999999989,2.056211080257869
-0.4945400000000002,2.0558806717957094
-0.49452000000000007,2.056211080257869
-0.49449999999999994,2.056211080257869
-0.49447999999999981,2.0558806717957046
-0.49446000000000012,2.0558806717957046
-0.49443999999999999,2.056211080257869
-0.49441999999999986,2.056211080257869
-0.49440000000000017,2.0558806717957094
-0.49438000000000004,2.0555502633335392
-0.49435999999999991,2.0558806717957046
-0.49433999999999978,2.0565414887200291
-0.49432000000000009,2.056211080257869
-0.49429999999999996,2.0558806717957046
-0.49427999999999983,2.056211080257869
-0.49426000000000014,2.056211080257869
-0.49424000000000001,2.0558806717957046
-0.49421999999999988,2.0558806717957046
-0.49420000000000019,2.0562110802578641
-0.49418000000000006,2.0565414887200339
-0.49415999999999993,2.056211080257869
-0.4941399999999998,2.0558806717957094
-0.49412000000000011,2.056211080257869
-0.49409999999999998,2.0565414887200339
-0.49407999999999985,2.056211080257869
-0.49406000000000017,2.056211080257869
-0.49404000000000003,2.056211080257869
-0.4940199999999999,2.056211080257869
-0.49400000000000022,2.056211080257869
-0.49398000000000009,2.056211080257869
-0.49395999999999995,2.0565414887200339
-0.49393999999999982,2.056211080257869
-0.49392000000000014,2.056211080257869
-0.49390000000000001,2.0558806717957046
-0.49387999999999987,2.056211080257869
-0.49386000000000019,2.0558806717957094
-0.49384000000000006,2.056211080257869
-0.49381999999999993,2.056211080257869
-0.49379999999999979,2.0565414887200339
-0.49378000000000011,2.0565414887200339
-0.49375999999999998,2.0558806717957046
-0.49373999999999985,2.0562110802578739
-0.49372000000000016,2.0565414887200291
-0.49370000000000003,2.0558806717957046
-0.4936799999999999,2.056211080257869
-0.49366000000000021,2.0565414887200291
-0.49364000000000008,2.056211080257869
-0.49361999999999995,2.0558806717957046
-0.49359999999999982,2.0558806717957094
-0.49358000000000013,2.056211080257869
-0.49356,2.056211080257869
-0.49353999999999987,2.056211080257869
-0.49352000000000018,2.056211080257869
-0.49350000000000005,2.056211080257869
-0.49347999999999992,2.0565414887200339
-0.49345999999999979,2.056211080257869
-0.4934400000000001,2.056211080257869
-0.49341999999999997,2.0568718971821989
-0.49339999999999984,2.056211080257869
-0.49338000000000015,2.056211080257869
-0.49336000000000002,2.0558806717957046
-0.49333999999999989,2.0565414887200339
-0.4933200000000002,2.0565414887200339
-0.49330000000000007,2.0558806717957046
-0.49327999999999994,2.0558806717957046
-0.49325999999999981,2.0565414887200291
-0.49324000000000012,2.056211080257869
-0.49321999999999999,2.056211080257869
-0.49319999999999986,2.0558806717957046
-0.49318000000000017,2.0568718971821847
-0.49316000000000004,2.0565414887200339
-0.49313999999999991,2.056211080257869
-0.49311999999999978,2.0562110802578739
-0.49310000000000009,2.0565414887200339
-0.49307999999999996,2.0565414887200339
-0.49305999999999983,2.056211080257869
-0.49304000000000014,2.056211080257869
-0.49302000000000001,2.0565414887200339
-0.49299999999999988,2.0558806717957046
-0.4929800000000002,2.0558806717957046
-0.49296000000000006,2.0565414887200339
-0.49293999999999993,2.0565414887200339
-0.4929199999999998,2.056211080257869
-0.49290000000000012,2.056211080257869
-0.49287999999999998,2.0565414887200339
-0.49285999999999985,2.0562110802578641
-0.49284000000000017,2.0558806717957094
-0.49282000000000004,2.056211080257869
-0.4927999999999999,2.056211080257869
-0.49278000000000022,2.0558806717957094
-0.49276000000000009,2.0555502633335392
-0.49273999999999996,2.0558806717957046
-0.49271999999999982,2.056211080257869
-0.49270000000000014,2.056211080257869
-0.49268000000000001,2.0558806717957046
-0.49265999999999988,2.056211080257869
-0.49264000000000019,2.0568718971821891
-0.49262000000000006,2.0565414887200339
-0.49259999999999993,2.056211080257869
-0.4925799999999998,2.0565414887200339
-0.49256000000000011,2.0565414887200339
-0.49253999999999998,2.056211080257869
-0.49251999999999985,2.0558806717957094
-0.49250000000000016,2.0562110802578641
-0.49248000000000003,2.0565414887200339
-0.4924599999999999,2.056211080257869
-0.49244000000000021,2.056211080257869
-0.49242000000000008,2.0568718971821989
-0.49239999999999995,2.056211080257869
-0.49237999999999982,2.0558806717957094
-0.49236000000000013,2.056211080257869
-0.49234,2.0565414887200339
-0.49231999999999987,2.0565414887200339
-0.49230000000000018,2.0562110802578739
-0.49228000000000005,2.0565414887200339
-0.49225999999999992,2.0568718971821989
-0.49223999999999979,2.0565414887200291
-0.4922200000000001,2.056211080257869
-0.49219999999999997,2.0565414887200339
-0.49217999999999984,2.0565414887200339
-0.49216000000000015,2.0565414887200339
-0.49214000000000002,2.056211080257869
-0.49211999999999989,2.056211080257869
-0.4921000000000002,2.0568718971821891
-0.49208000000000007,2.0568718971821989
-0.49205999999999994,2.0558806717957046
-0.49203999999999981,2.056871897182194
-0.49202000000000012,2.0565414887200339
-0.49199999999999999,2.0565414887200339
-0.49197999999999986,2.0565414887200339
-0.49196000000000017,2.056871897182194
-0.49194000000000004,2.056211080257869
-0.49191999999999991,2.056211080257869
-0.49189999999999978,2.0562110802578739
-0.49188000000000009,2.0565414887200339
-0.49185999999999996,2.0565414887200339
-0.49183999999999983,2.0562110802578739
-0.49182000000000015,2.0565414887200291
-0.49180000000000001,2.0565414887200339
-0.49177999999999988,2.0565414887200339
-0.4917600000000002,2.0555502633335534
-0.49174000000000007,2.0565414887200339
-0.49171999999999993,2.0565414887200339
-0.4916999999999998,2.0565414887200242
-0.49168000000000012,2.0558806717957046
-0.49165999999999999,2.056211080257869
-0.49163999999999985,2.0565414887200339
-0.49162000000000017,2.0565414887200339
-0.49160000000000004,2.0558806717957046
-0.49157999999999991,2.0565414887200339
-0.49156000000000022,2.0565414887200339
-0.49154000000000009,2.0568718971821989
-0.49151999999999996,2.0558806717957046
-0.49149999999999983,2.0562110802578788
-0.49148000000000014,2.0568718971821989
-0.49146000000000001,2.0565414887200339
-0.49143999999999988,2.056211080257869
-0.49142000000000019,2.0565414887200291
-0.49140000000000006,2.0568718971821989
-0.49137999999999993,2.0565414887200339
-0.4913599999999998,2.0562110802578788
-0.49134000000000011,2.0568718971821989
-0.49131999999999998,2.0565414887200339
-0.49129999999999985,2.056211080257869
-0.49128000000000016,2.056211080257869
-0.49126000000000003,2.0565414887200339
-0.4912399999999999,2.056211080257869
-0.49122000000000021,2.056211080257869
-0.49120000000000008,2.0565414887200339
-0.49117999999999995,2.0568718971821989
-0.49115999999999982,2.0565414887200339
-0.49114000000000013,2.0565414887200339
-0.49112,2.0565414887200339
-0.49109999999999987,2.0565414887200339
-0.49108000000000018,2.056871897182194
-0.49106000000000005,2.056211080257869
-0.49103999999999992,2.056211080257869
-0.49101999999999979,2.0565414887200291
-0.4910000000000001,2.056211080257869
-0.49097999999999997,2.0558806717957046
-0.49095999999999984,2.0565414887200339
-0.49094000000000015,2.0565414887200339
-0.49092000000000002,2.056211080257869
-0.49089999999999989,2.0565414887200339
-0.49088000000000021,2.056871897182194
-0.49086000000000007,2.0565414887200339
-0.49083999999999994,2.0558806717957046
-0.49081999999999981,2.0562110802578739
-0.49080000000000013,2.0565414887200339
-0.49077999999999999,2.0565414887200339
-0.49075999999999986,2.056211080257869
-0.49074000000000018,2.0565414887200291
-0.49072000000000005,2.0565414887200339
-0.49069999999999991,2.056211080257869
-0.49067999999999978,2.0562110802578739
-0.4906600000000001,2.0565414887200339
-0.49063999999999997,2.0565414887200339
-0.49061999999999983,2.056211080257869
-0.49060000000000015,2.056211080257869
-0.49058000000000002,2.0565414887200339
-0.49055999999999989,2.056211080257869
-0.4905400000000002,2.056211080257869
-0.49052000000000007,2.056211080257869
-0.49049999999999994,2.0568718971821989
-0.49047999999999981,2.056871897182194
-0.49046000000000012,2.0565414887200339
-0.49043999999999999,2.0565414887200339
-0.49041999999999986,2.0565414887200339
-0.49040000000000017,2.0562110802578739
-0.49038000000000004,2.056211080257869
-0.49035999999999991,2.0565414887200339
-0.49034000000000022,2.0572023056443536
-0.49032000000000009,2.0565414887200339
-0.49029999999999996,2.056211080257869
-0.49027999999999983,2.056871897182194
-0.49026000000000014,2.0565414887200339
-0.49024000000000001,2.056211080257869
-0.49021999999999988,2.056211080257869
-0.49020000000000019,2.0565414887200291
-0.49018000000000006,2.0568718971821989
-0.49015999999999993,2.056211080257869
-0.4901399999999998,2.0562110802578788
-0.49012000000000011,2.0568718971821989
-0.49009999999999998,2.0568718971821989
-0.49007999999999985,2.056211080257869
-0.49006000000000016,2.056211080257869
-0.49004000000000003,2.056211080257869
-0.4900199999999999,2.0565414887200339
